R Notebook
…
Warning: UNRELIABLE VALUE: Future ('<none>') unexpectedly generated random
numbers without specifying argument 'seed'. There is a risk that those random
numbers are not statistically sound and the overall results might be invalid.
To fix this, specify 'seed=TRUE'. This ensures that proper, parallel-safe random
numbers are produced via the L'Ecuyer-CMRG method. To disable this check, use
'seed=NULL', or set option 'future.rng.onMisuse' to "ignore".

Tair_rmse

# A tibble: 3,000 × 2
    rmse gap_length
   <dbl>      <int>
 1 3.78           1
 2 0.819          5
 3 2.17           9
 4 0.773         15
 5 1.40          21
 6 6.04          29
 7 4.02          38
 8 3.18          49
 9 4.94          62
10 2.70          77
# … with 2,990 more rows
…
